{
    "products": [
{
    "id": 8,
    "title": "Logitech G PRO Gaming Headset",
    "price": 8990,
    "image":
        "https://fragstore.ru/images/thumbnails/270/270/detailed/117/logitech-g-pro-x-gaming-headset-1-1000x1000.jpg"
}
    ]
}